FB Blog - DACSS - UMASS - Final Project FB - working doc
…
#first I created a count column
politik_df3 <- politik_df3 %>% mutate(countid = "1")
politik_df3$countid <- as.numeric(politik_df3$countid)

#preparing tables
library(data.table)
politik_table2 <- data.table(politik_df3)

#total posts grouped by author
count_table2 <- politik_table2 %>% group_by(author) %>% summarise(Total_posts = sum(countid))
count_table2 <- count_table2 %>% arrange(desc(Total_posts))
print(count_table2)

# A tibble: 31,554 × 2
   author               Total_posts
   <chr>                      <dbl>
 1 Numerous_Photograph9         304
 2 Logical_Parameters           223
 3 JubalHarshaw23               188
 4 BrtFrkwr                     178
 5 Due-Shirt616                 148
 6 TintedApostle                148
 7 Alistazia                    142
 8 LibertyInaFeatherBed         121
 9 grixorbatz                   118
10 RickyWinterborn-1080          97
# ℹ 31,544 more rows

summary_votes <- politik_table2 %>% group_by(author) %>% summarize(Total_Score = sum(score))
summary_votes <- summary_votes %>% arrange(desc(Total_Score))
print(summary_votes)

# A tibble: 31,554 × 2
   author             Total_Score
   <chr>                    <int>
 1 Jackinapox               15912
 2 jackleggjr               12829
 3 tracch                   12462
 4 OsellusK                 11978
 5 BlotchComics             11743
 6 BukkitCrab               11161
 7 OppositeDifference       10184
 8 zsreport                  8899
 9 JubalHarshaw23            8694
10 AngusMcTibbins            8477
# ℹ 31,544 more rows

#Upvotes as a proportion of comments
summary_votes_ratio <- politik_table2 %>% group_by(author) %>% summarize(Ratio_upvotes_per_comment = sum(upvotes)/sum(countid))
summary_votes_ratio <- summary_votes_ratio %>% arrange(desc(Ratio_upvotes_per_comment))
print(summary_votes_ratio)

# A tibble: 31,554 × 2
   author             Ratio_upvotes_per_comment
   <chr>                                  <dbl>
 1 tracch                                 6231 
 2 IMissChannel76                         4573 
 3 TheDudeBeto                            3892 
 4 Mikraphonechekka12                     3728 
 5 OokLeeNooma                            2746.
 6 giddyviewer                            2341 
 7 pottymcnugg                            2340 
 8 Fairymask                              2277 
 9 Manikin_Maker                          2177 
10 torspice                               2064 
# ℹ 31,544 more rows
…
