FB Blog - DACSS - UMASS - Post 2- Final Project FB - Scrapping Data and Exploratory Analysis - 695N Course
…
    transpose

The following objects are masked from 'package:dplyr':

    between, first, last

politik_table2 <- data.table(politik_df3)

#total posts grouped by author
count_table2 <- politik_table2 %>% group_by(author) %>% summarise(Total_posts = sum(countid))
count_table2 <- count_table2 %>% arrange(desc(Total_posts))
print(count_table2)

# A tibble: 6,520 × 2
   author               Total_posts
   <chr>                      <dbl>
 1 Numerous_Photograph9          84
 2 bignanoman                    40
 3 Class_of_22                   34
 4 Ferelwing                     33
 5 LivingEnd44                   32
 6 jimmydublets                  30
 7 mymomknowsyourmom             25
 8 grixorbatz                    23
 9 sndcstle                      23
10 Logical_Parameters            22
# ℹ 6,510 more rows

summary_votes <- politik_table2 %>% group_by(author) %>% summarize(Total_Score = sum(score))
summary_votes <- summary_votes %>% arrange(desc(Total_Score))
print(summary_votes)

# A tibble: 6,520 × 2
   author          Total_Score
   <chr>                 <int>
 1 BukkitCrab             8414
 2 PalmettoAndMoon        6095
 3 OokLeeNooma            5480
 4 Poppa_Mo               4481
 5 TheDudeBeto            3892
 6 TintedApostle          3661
 7 ImmoKnight             3343
 8 Crazy-Nights           3032
 9 HotPhilly              2809
10 Jackinapox             2625
# ℹ 6,510 more rows

#Upvotes as a proportion of comments
summary_votes_ratio <- politik_table2 %>% group_by(author) %>% summarize(Ratio_upvotes_per_comment = sum(upvotes)/sum(countid))
summary_votes_ratio <- summary_votes_ratio %>% arrange(desc(Ratio_upvotes_per_comment))
print(summary_votes_ratio)

# A tibble: 6,520 × 2
   author             Ratio_upvotes_per_comment
   <chr>                                  <dbl>
 1 OokLeeNooma                            5480 
 2 TheDudeBeto                            3892 
 3 Poppa_Mo                               2240.
 4 ScotTheDuck                            2160 
 5 AbandonedWaterPark                     2118 
 6 rollingstone                           2096 
 7 bocaciega                              1876 
 8 jono9898                               1717 
 9 PurpleCitron8                          1604 
10 Jackinapox                             1312.
# ℹ 6,510 more rows
…
